[{
    "id": 1,
    "fecha": "6/6/2019",
    "importe": 82,
    "latitud": 12.241259,
    "longitud": 9.9073986
  }, {
    "id": 2,
    "fecha": "5/18/2019",
    "importe": 48,
    "latitud": 51.4270935,
    "longitud": 21.3306176
  }, {
    "id": 3,
    "fecha": "2/26/2019",
    "importe": 63,
    "latitud": 13.2997024,
    "longitud": 7.79873
  }, {
    "id": 4,
    "fecha": "7/22/2019",
    "importe": 86,
    "latitud": 6.7702718,
    "longitud": 7.4300234
  }, {
    "id": 5,
    "fecha": "2/17/2019",
    "importe": 3,
    "latitud": 59.7959318,
    "longitud": 30.3954982
  }, {
    "id": 6,
    "fecha": "5/18/2019",
    "importe": 2,
    "latitud": 54.236292,
    "longitud": 20.1285899
  }, {
    "id": 7,
    "fecha": "5/28/2019",
    "importe": 82,
    "latitud": 63.3030414,
    "longitud": 30.9967709
  }, {
    "id": 8,
    "fecha": "3/26/2019",
    "importe": 95,
    "latitud": 30.4158383,
    "longitud": 31.5621184
  }, {
    "id": 9,
    "fecha": "4/3/2019",
    "importe": 36,
    "latitud": 9.93644,
    "longitud": -84.96602
  }, {
    "id": 10,
    "fecha": "3/28/2019",
    "importe": 49,
    "latitud": 4.4796434,
    "longitud": -75.5975296
  }]